…
```r
> factor(months_vec) %>%
+   fct_inorder()
[1] Dec Apr Jan Mar
Levels: Dec Apr Jan Mar
```

Example: gss_cat
===
- This is an example data frame loaded by `forcats` that has many factor columns, which are identifiable by the `<fct>` tag
- It’s a sample of data from the General Social Survey, which is a long-running US survey conducted by the independent research organization NORC at the University of Chicago.

```r
> gss_cat
# A tibble: 21,483 × 9
    year marital         age race  rincome        partyid  relig  denom  tvhours
   <int> <fct>         <int> <fct> <fct>          <fct>    <fct>  <fct>    <int>
 1  2000 Never married    26 White $8000 to 9999  Ind,nea… Prote… South…      12
 2  2000 Divorced         48 White $8000 to 9999  Not str… Prote… Bapti…      NA
 3  2000 Widowed          67 White Not applicable Indepen… Prote… No de…       2
 4  2000 Never married    39 White Not applicable Ind,nea… Ortho… Not a…       4
 5  2000 Divorced         25 White Not applicable Not str… None   Not a…       1
 6  2000 Married          25 White $20000 - 24999 Strong … Prote… South…      NA
 7  2000 Never married    36 White $25000 or more Not str… Chris… Not a…       3
 8  2000 Divorced         44 White $7000 to 7999  Ind,nea… Prote… Luthe…      NA
 9  2000 Married          44 White $25000 or more Not str… Prote… Other        0
10  2000 Married          47 White $25000 or more Strong … Prote… South…       3
# … with 21,473 more rows
```
…
Creating dates from components
===
- Sometimes the dates and times you get are split up (usually in columns)

```r
> flights %>% 
+   select(year, month, day, hour, minute)
# A tibble: 336,776 × 5
    year month   day  hour minute
   <int> <int> <int> <dbl>  <dbl>
 1  2013     1     1     5     15
 2  2013     1     1     5     29
 3  2013     1     1     5     40
 4  2013     1     1     5     45
 5  2013     1     1     6      0
 6  2013     1     1     5     58
 7  2013     1     1     6      0
 8  2013     1     1     6      0
 9  2013     1     1     6      0
10  2013     1     1     6      0
# … with 336,766 more rows
```

Creating dates from components
===
- You can join them into dates or datetimes with `make_date()` or `make_datetime()`

```r
> flights %>% 
+   select(year, month, day, hour, minute) %>% 
+   mutate(departure = make_datetime(year, month, day, hour, minute))
# A tibble: 336,776 × 6
    year month   day  hour minute departure          
   <int> <int> <int> <dbl>  <dbl> <dttm>             
 1  2013     1     1     5     15 2013-01-01 05:15:00
 2  2013     1     1     5     29 2013-01-01 05:29:00
 3  2013     1     1     5     40 2013-01-01 05:40:00
 4  2013     1     1     5     45 2013-01-01 05:45:00
 5  2013     1     1     6      0 2013-01-01 06:00:00
 6  2013     1     1     5     58 2013-01-01 05:58:00
 7  2013     1     1     6      0 2013-01-01 06:00:00
 8  2013     1     1     6      0 2013-01-01 06:00:00
 9  2013     1     1     6      0 2013-01-01 06:00:00
10  2013     1     1     6      0 2013-01-01 06:00:00
# … with 336,766 more rows
```
…
