…
Data frame example
========================================================


```r
> mtc
# A tibble: 32 × 11
     mpg   cyl  disp    hp  drat    wt  qsec    vs    am  gear  carb
   <dbl> <dbl> <dbl> <dbl> <dbl> <dbl> <dbl> <dbl> <dbl> <dbl> <dbl>
 1  21       6  160    110  3.9   2.62  16.5     0     1     4     4
 2  21       6  160    110  3.9   2.88  17.0     0     1     4     4
 3  22.8     4  108     93  3.85  2.32  18.6     1     1     4     1
 4  21.4     6  258    110  3.08  3.22  19.4     1     0     3     1
 5  18.7     8  360    175  3.15  3.44  17.0     0     0     3     2
 6  18.1     6  225    105  2.76  3.46  20.2     1     0     3     1
 7  14.3     8  360    245  3.21  3.57  15.8     0     0     3     4
 8  24.4     4  147.    62  3.69  3.19  20       1     0     4     2
 9  22.8     4  141.    95  3.92  3.15  22.9     1     0     4     2
10  19.2     6  168.   123  3.92  3.44  18.3     1     0     4     4
# … with 22 more rows
```
- This data set contains data on 32 different cars.
- A `tibble` is a kind of data frame. This one has 32 rows and 11 columns.  We only see the first 10 rows because of limited slide/screen space.
- Across the top is the name of each column. The next row shows the type of data in the column. `<dbl>`, means double-precision floating point number, which is a computer science term for any number with a decimal point in it (e.g. `1.3333`, `3.14159`, `1.0`)

Data frame example
========================================================

```r
> mtc
# A tibble: 32 × 11
     mpg   cyl  disp    hp  drat    wt  qsec    vs    am  gear  carb
   <dbl> <dbl> <dbl> <dbl> <dbl> <dbl> <dbl> <dbl> <dbl> <dbl> <dbl>
 1  21       6  160    110  3.9   2.62  16.5     0     1     4     4
 2  21       6  160    110  3.9   2.88  17.0     0     1     4     4
 3  22.8     4  108     93  3.85  2.32  18.6     1     1     4     1
 4  21.4     6  258    110  3.08  3.22  19.4     1     0     3     1
 5  18.7     8  360    175  3.15  3.44  17.0     0     0     3     2
 6  18.1     6  225    105  2.76  3.46  20.2     1     0     3     1
 7  14.3     8  360    245  3.21  3.57  15.8     0     0     3     4
 8  24.4     4  147.    62  3.69  3.19  20       1     0     4     2
 9  22.8     4  141.    95  3.92  3.15  22.9     1     0     4     2
10  19.2     6  168.   123  3.92  3.44  18.3     1     0     4     4
# … with 22 more rows
```
…
select() subsets columns by name
=========================================================

```r
> select(mtc, mpg, qsec, wt)
# A tibble: 32 × 3
     mpg  qsec    wt
   <dbl> <dbl> <dbl>
 1  21    16.5  2.62
 2  21    17.0  2.88
 3  22.8  18.6  2.32
 4  21.4  19.4  3.22
 5  18.7  17.0  3.44
 6  18.1  20.2  3.46
 7  14.3  15.8  3.57
 8  24.4  20    3.19
 9  22.8  22.9  3.15
10  19.2  18.3  3.44
# … with 22 more rows
```
- The select function will return a subset of the data frame, using only the requested columns in the order specified.

select() subsets columns by name
=========================================================
- `select()` can also be used to select everything **except for** certain columns by using the minus character `-`

```r
> select(mtc, -hp)
# A tibble: 32 × 10
     mpg   cyl  disp  drat    wt  qsec    vs    am  gear  carb
   <dbl> <dbl> <dbl> <dbl> <dbl> <dbl> <dbl> <dbl> <dbl> <dbl>
 1  21       6  160   3.9   2.62  16.5     0     1     4     4
 2  21       6  160   3.9   2.88  17.0     0     1     4     4
 3  22.8     4  108   3.85  2.32  18.6     1     1     4     1
 4  21.4     6  258   3.08  3.22  19.4     1     0     3     1
 5  18.7     8  360   3.15  3.44  17.0     0     0     3     2
 6  18.1     6  225   2.76  3.46  20.2     1     0     3     1
 7  14.3     8  360   3.21  3.57  15.8     0     0     3     4
 8  24.4     4  147.  3.69  3.19  20       1     0     4     2
 9  22.8     4  141.  3.92  3.15  22.9     1     0     4     2
10  19.2     6  168.  3.92  3.44  18.3     1     0     4     4
# … with 22 more rows
```

pull() is a friend of select()
=========================================================
- `select()` has a friend called `pull()` which returns a vector instead of a (one-column) data frame

```r
> select(mtc, hp)
# A tibble: 32 × 1
      hp
   <dbl>
 1   110
 2   110
 3    93
 4   110
 5   175
 6   105
 7   245
 8    62
 9    95
10   123
# … with 22 more rows
…
mutate() creates new columns
================================================================

```r
> mtc_vars_subset = select(mtc, mpg, hp)
> mutate(mtc_vars_subset, gpm = 1/mpg)
# A tibble: 32 × 3
     mpg    hp    gpm
   <dbl> <dbl>  <dbl>
 1  21     110 0.0476
 2  21     110 0.0476
 3  22.8    93 0.0439
 4  21.4   110 0.0467
 5  18.7   175 0.0535
 6  18.1   105 0.0552
 7  14.3   245 0.0699
 8  24.4    62 0.0410
 9  22.8    95 0.0439
10  19.2   123 0.0521
# … with 22 more rows
```
- This uses `mutate` to add a new column to which is the reciprocal of `mpg`.
- The thing on the left of the `=` is a new name that you make up which you would like the new column to be called
- The expression on the right of the `=` defines what will go into the new column
-mutate() can create multiple columns at the same time and use multiple columns to define a single new one

mutate() can create multiple new columns at once
================================================================

```r
> mutate(mtc_vars_subset, # the newlines make it more readable
+       gpm = 1/mpg,
+       mpg_hp_ratio = mpg/hp) 
# A tibble: 32 × 4
     mpg    hp    gpm mpg_hp_ratio
   <dbl> <dbl>  <dbl>        <dbl>
 1  21     110 0.0476       0.191 
 2  21     110 0.0476       0.191 
 3  22.8    93 0.0439       0.245 
 4  21.4   110 0.0467       0.195 
 5  18.7   175 0.0535       0.107 
 6  18.1   105 0.0552       0.172 
 7  14.3   245 0.0699       0.0584
 8  24.4    62 0.0410       0.394 
 9  22.8    95 0.0439       0.24  
10  19.2   123 0.0521       0.156 
# … with 22 more rows
```
…
